01.c Tarea de repaso de Estadística descripiva
…
Haga una trágica en plotly que tenga 3 paneles con las siguientes figuras:

-Precios base 100 a la fecha inicial.

-P/L.

-Rendimiento contínuo.

DatosGraficaPL=Datos$tablaPL %>%
  pivot_longer(cols=-Date,names_to="Ticker",values_to="PL")
DatosGraficaPL

# A tibble: 13,813 × 3
   Date       Ticker           PL
   <date>     <chr>         <dbl>
 1 2022-09-19 ALFAA.MX      1.02 
 2 2022-09-19 BIMBOA.MX     0.993
 3 2022-09-19 GFNORTEO.MX   1.04 
 4 2022-09-19 GRUMAB.MX     0.980
 5 2022-09-19 LACOMERUBC.MX 0.993
 6 2022-09-19 VOLARA.MX     0.981
 7 2022-09-19 AAPL          1.02 
 8 2022-09-19 GOOGL         0.994
 9 2022-09-19 META          1.00 
10 2022-09-19 GRMN          1.01 
# ℹ 13,803 more rows
…
preciosB100=Datos$tablaPrecios[,-1]

preciosB100=apply(preciosB100,2,base100Calc)

preciosB100=cbind(data.frame(Date=Datos$tablaPrecios$Date),
                  preciosB100)

DatosGraficaPreciosB100=preciosB100 %>%
  pivot_longer(cols=-Date,names_to="Ticker",values_to="PrecioBase100")

DatosGraficaRendimientos=Datos$tablaRendimientosCont %>%
  pivot_longer(cols=-Date,names_to="Ticker",values_to="RendimientoCont")
DatosGraficaRendimientos

# A tibble: 13,813 × 3
   Date       Ticker        RendimientoCont
   <date>     <chr>                   <dbl>
 1 2022-09-19 ALFAA.MX                1.66 
 2 2022-09-19 BIMBOA.MX              -0.724
 3 2022-09-19 GFNORTEO.MX             3.45 
 4 2022-09-19 GRUMAB.MX              -2.01 
 5 2022-09-19 LACOMERUBC.MX          -0.713
 6 2022-09-19 VOLARA.MX              -1.95 
 7 2022-09-19 AAPL                    1.59 
 8 2022-09-19 GOOGL                  -0.628
 9 2022-09-19 META                    0.286
10 2022-09-19 GRMN                    0.971
# ℹ 13,803 more rows
…
